Rental - Car Type Api: October 7, 2017, 2:13 am
Response: Array
(
    [0] => Array
        (
            [car_type_id] => 2
            [car_type_name] => HATCHBACK
            [car_type_image] => uploads/car/editcar_2.png
            [city_id] => 123
            [base_fare] => 100 Per 10 Miles
            [ride_mode] => 1
        )

    [1] => Array
        (
            [car_type_id] => 3
            [car_type_name] => LUXURY
            [car_type_image] => uploads/car/editcar_3.png
            [city_id] => 123
            [base_fare] => 200 Per 10 Miles
            [ride_mode] => 1
        )

)

city_name: Medellín
latitude: 6.19704949576585
longitude: -75.5645845550702
-------------------------
Rental - Car Type Api: October 7, 2017, 2:13 am
Response: Array
(
    [0] => Array
        (
            [car_type_id] => 2
            [car_type_name] => HATCHBACK
            [car_type_image] => uploads/car/editcar_2.png
            [city_id] => 123
            [base_fare] => 100 Per 10 Miles
            [ride_mode] => 1
        )

    [1] => Array
        (
            [car_type_id] => 3
            [car_type_name] => LUXURY
            [car_type_image] => uploads/car/editcar_3.png
            [city_id] => 123
            [base_fare] => 200 Per 10 Miles
            [ride_mode] => 1
        )

)

city_name: Medellín
latitude: 6.19703669137758
longitude: -75.5645939515885
-------------------------
Rental - Car Type Api: October 7, 2017, 2:13 am
Response: Array
(
    [0] => Array
        (
            [car_type_id] => 2
            [car_type_name] => HATCHBACK
            [car_type_image] => uploads/car/editcar_2.png
            [city_id] => 123
            [base_fare] => 100 Per 10 Miles
            [ride_mode] => 1
        )

    [1] => Array
        (
            [car_type_id] => 3
            [car_type_name] => LUXURY
            [car_type_image] => uploads/car/editcar_3.png
            [city_id] => 123
            [base_fare] => 200 Per 10 Miles
            [ride_mode] => 1
        )

)

city_name: Medellín
latitude: 6.19704858699228
longitude: -75.5645834564706
-------------------------
Rental - Car Type Api: October 7, 2017, 2:13 am
Response: Array
(
    [0] => Array
        (
            [car_type_id] => 2
            [car_type_name] => HATCHBACK
            [car_type_image] => uploads/car/editcar_2.png
            [city_id] => 123
            [base_fare] => 100 Per 10 Miles
            [ride_mode] => 1
        )

    [1] => Array
        (
            [car_type_id] => 3
            [car_type_name] => LUXURY
            [car_type_image] => uploads/car/editcar_3.png
            [city_id] => 123
            [base_fare] => 200 Per 10 Miles
            [ride_mode] => 1
        )

)

city_name: Medellín
latitude: 6.19703620670216
longitude: -75.5645904070905
-------------------------
Rental - Car Type Api: October 7, 2017, 2:14 am
Response: Array
(
    [0] => Array
        (
            [car_type_id] => 2
            [car_type_name] => HATCHBACK
            [car_type_image] => uploads/car/editcar_2.png
            [city_id] => 123
            [base_fare] => 100 Per 10 Miles
            [ride_mode] => 1
        )

    [1] => Array
        (
            [car_type_id] => 3
            [car_type_name] => LUXURY
            [car_type_image] => uploads/car/editcar_3.png
            [city_id] => 123
            [base_fare] => 200 Per 10 Miles
            [ride_mode] => 1
        )

)

city_name: Medellín
latitude: 6.19704824782572
longitude: -75.5645837604296
-------------------------
Rental - Car Type Api: October 7, 2017, 2:14 am
Response: Array
(
    [0] => Array
        (
            [car_type_id] => 2
            [car_type_name] => HATCHBACK
            [car_type_image] => uploads/car/editcar_2.png
            [city_id] => 123
            [base_fare] => 100 Per 10 Miles
            [ride_mode] => 1
        )

    [1] => Array
        (
            [car_type_id] => 3
            [car_type_name] => LUXURY
            [car_type_image] => uploads/car/editcar_3.png
            [city_id] => 123
            [base_fare] => 200 Per 10 Miles
            [ride_mode] => 1
        )

)

city_name: Medellín
latitude: 6.19703423987874
longitude: -75.5645909732493
-------------------------
Rental - Car Type Api: October 7, 2017, 2:15 am
Response: Array
(
    [0] => Array
        (
            [car_type_id] => 2
            [car_type_name] => HATCHBACK
            [car_type_image] => uploads/car/editcar_2.png
            [city_id] => 123
            [base_fare] => 100 Per 10 Miles
            [ride_mode] => 1
        )

    [1] => Array
        (
            [car_type_id] => 3
            [car_type_name] => LUXURY
            [car_type_image] => uploads/car/editcar_3.png
            [city_id] => 123
            [base_fare] => 200 Per 10 Miles
            [ride_mode] => 1
        )

)

city_name: Medellín
latitude: 6.19703611792805
longitude: -75.5645934454284
-------------------------
Rental - Car Type Api: October 7, 2017, 6:57 pm
Response: Array
(
    [0] => Array
        (
            [car_type_id] => 2
            [car_type_name] => HATCHBACK
            [car_type_image] => uploads/car/editcar_2.png
            [city_id] => 123
            [base_fare] => 100 Per 10 Miles
            [ride_mode] => 1
        )

    [1] => Array
        (
            [car_type_id] => 3
            [car_type_name] => LUXURY
            [car_type_image] => uploads/car/editcar_3.png
            [city_id] => 123
            [base_fare] => 200 Per 10 Miles
            [ride_mode] => 1
        )

)

city_name: Envigado
latitude: 6.17432309942061
longitude: -75.5908098815622
-------------------------
Rental - Car Type Api: October 7, 2017, 6:57 pm
Response: Array
(
    [0] => Array
        (
            [car_type_id] => 2
            [car_type_name] => HATCHBACK
            [car_type_image] => uploads/car/editcar_2.png
            [city_id] => 123
            [base_fare] => 100 Per 10 Miles
            [ride_mode] => 1
        )

    [1] => Array
        (
            [car_type_id] => 3
            [car_type_name] => LUXURY
            [car_type_image] => uploads/car/editcar_3.png
            [city_id] => 123
            [base_fare] => 200 Per 10 Miles
            [ride_mode] => 1
        )

)

city_name: Envigado
latitude: 6.1742173581255
longitude: -75.590726669188
-------------------------
